name|ID
Sender to keep|1
sender keeps|2
national sales|3
nat. sales|4
xml schema|5
xml scima|6
emails to the client|7
email the client|8
the sun arisen|9
arisen the sun has|10
the quick brown fox|11
the brown fox is quick|12
aaaaaaaaaaaaaaaaa|13
delivery date|14
date of delivery|15
House of Representatives|16
horse of representatives|17
Hous o representatives|18
house of represenatives|19
hause of representatives|20
