name|ID
Sema Group Pty Ltd|1
Sema Grop Pty. Ltd.|2
Sema Pty Ltd|3
Sema Group|4
The Sema Group|5
"Group, Sema"|6
"The Group, Sema"|7
Sema of the Group|8
Sema Test|9
Sema Grp|10
Sema Grp Pty Ltd|11
Not a dup|12
aaaaaaaaaaaaaaaaa|13
