seq_no,cell,nameline,position,company_name,address1,address2,suburb,state,postcode
000001,A,Mr Luke Schiller,General Manager,Spook Corporation Pty Ltd,324 Glen Osmond Rd,,MYRTLE BANK,SA,5064
000001,C,Mr Luke Schiller,Manager,Spook Corporation Pty Ltd,324 Glen Osmond Rd,,MYRTLE BANK,SA,5064
000001,A,,,Spook Corp,324 Glen Osmond Rd,,MYRTLE BANK,SA,5064
000001,A,Luke Shiller,,Spook Corporation Pty Ltd,324 Glen Osmond Rd,,MYRTLE BANK,SA,5064
000001,B,Mr Luke Schiller,General Manager,,324 Glen Osmond Rd,,MYRTLE BANK,SA,5064
000001,A,Ms L Schiller,,Spook Corporation Pty Ltd,324 Glen Osmond Rd,,MYRTLE BANK,SA,5064
000001,A,Mr Luke Schiller,General Manager,,324 Glen Osmond Rd,,MYRTLE BANK,SA,5064
000001,A,General Manager,,Spook Corporation Pty Ltd,324 Glen Osmond Rd,,MYRTLE BANK,SA,5064